\relax 
\providecommand\hyper@newdestlabel[2]{}
\providecommand\HyperFirstAtBeginDocument{\AtBeginDocument}
\HyperFirstAtBeginDocument{\ifx\hyper@anchor\@undefined
\global\let\oldcontentsline\contentsline
\gdef\contentsline#1#2#3#4{\oldcontentsline{#1}{#2}{#3}}
\global\let\oldnewlabel\newlabel
\gdef\newlabel#1#2{\newlabelxx{#1}#2}
\gdef\newlabelxx#1#2#3#4#5#6{\oldnewlabel{#1}{{#2}{#3}}}
\AtEndDocument{\ifx\hyper@anchor\@undefined
\let\contentsline\oldcontentsline
\let\newlabel\oldnewlabel
\fi}
\fi}
\global\let\hyper@last\relax 
\gdef\HyperFirstAtBeginDocument#1{#1}
\providecommand\HyField@AuxAddToFields[1]{}
\providecommand\HyField@AuxAddToCoFields[2]{}
\catcode `"\active 
\@writefile{toc}{\beamer@endinputifotherversion {3.24pt}}
\@writefile{nav}{\beamer@endinputifotherversion {3.24pt}}
\select@language{brazil}
\@writefile{toc}{\select@language{brazil}}
\@writefile{lof}{\select@language{brazil}}
\@writefile{lot}{\select@language{brazil}}
\@writefile{nav}{\headcommand {\slideentry {0}{0}{1}{1/1}{}{0}}}
\@writefile{nav}{\headcommand {\beamer@framepages {1}{1}}}
\@writefile{nav}{\headcommand {\slideentry {0}{0}{2}{2/2}{}{0}}}
\@writefile{nav}{\headcommand {\beamer@framepages {2}{2}}}
\@writefile{toc}{\beamer@sectionintoc {1}{Introdu\IeC {\c c}\IeC {\~a}o}{3}{0}{1}}
\@writefile{nav}{\headcommand {\sectionentry {1}{Introdu\IeC {\c c}\IeC {\~a}o}{3}{Introdu\IeC {\c c}\IeC {\~a}o}{0}}}
\@writefile{nav}{\headcommand {\beamer@sectionpages {1}{2}}}
\@writefile{nav}{\headcommand {\beamer@subsectionpages {1}{2}}}
\@writefile{nav}{\headcommand {\slideentry {1}{0}{3}{3/3}{}{0}}}
\@writefile{nav}{\headcommand {\beamer@framepages {3}{3}}}
\@writefile{toc}{\beamer@subsectionintoc {1}{1}{Iniciando}{4}{0}{1}}
\@writefile{nav}{\headcommand {\beamer@subsectionentry {0}{1}{1}{4}{Iniciando}}\headcommand {\beamer@subsectionpages {3}{3}}}
\@writefile{nav}{\headcommand {\slideentry {1}{1}{1}{4/4}{Iniciando}{0}}}
\@writefile{nav}{\headcommand {\beamer@framepages {4}{4}}}
\@writefile{nav}{\headcommand {\slideentry {1}{1}{2}{5/5}{Iniciando}{0}}}
\@writefile{nav}{\headcommand {\beamer@framepages {5}{5}}}
\@writefile{nav}{\headcommand {\slideentry {1}{1}{3}{6/6}{Iniciando}{0}}}
\@writefile{nav}{\headcommand {\beamer@framepages {6}{6}}}
\@writefile{nav}{\headcommand {\slideentry {1}{1}{4}{7/7}{Iniciando}{0}}}
\@writefile{nav}{\headcommand {\beamer@framepages {7}{7}}}
\@writefile{nav}{\headcommand {\slideentry {1}{1}{5}{8/8}{Iniciando}{0}}}
\@writefile{nav}{\headcommand {\beamer@framepages {8}{8}}}
\@writefile{nav}{\headcommand {\slideentry {1}{1}{6}{9/9}{Iniciando}{0}}}
\@writefile{nav}{\headcommand {\beamer@framepages {9}{9}}}
\@writefile{nav}{\headcommand {\slideentry {1}{1}{7}{10/10}{Iniciando}{0}}}
\@writefile{nav}{\headcommand {\beamer@framepages {10}{10}}}
\@writefile{toc}{\beamer@sectionintoc {2}{Comandos iniciais}{11}{0}{2}}
\@writefile{nav}{\headcommand {\sectionentry {2}{Comandos iniciais}{11}{Comandos iniciais}{0}}}
\@writefile{nav}{\headcommand {\beamer@sectionpages {3}{10}}}
\@writefile{nav}{\headcommand {\beamer@subsectionpages {4}{10}}}
\@writefile{nav}{\headcommand {\slideentry {2}{0}{8}{11/11}{}{0}}}
\@writefile{nav}{\headcommand {\beamer@framepages {11}{11}}}
\@writefile{toc}{\beamer@subsectionintoc {2}{1}{Primeiro documento}{12}{0}{2}}
\@writefile{nav}{\headcommand {\beamer@subsectionentry {0}{2}{1}{12}{Primeiro documento}}\headcommand {\beamer@subsectionpages {11}{11}}}
\@writefile{nav}{\headcommand {\slideentry {2}{1}{1}{12/12}{Primeiro documento}{0}}}
\@writefile{nav}{\headcommand {\beamer@framepages {12}{12}}}
\@writefile{nav}{\headcommand {\slideentry {2}{1}{2}{13/13}{Primeiro documento}{0}}}
\@writefile{nav}{\headcommand {\beamer@framepages {13}{13}}}
\@writefile{nav}{\headcommand {\slideentry {2}{1}{3}{14/14}{Primeiro documento}{0}}}
\@writefile{nav}{\headcommand {\beamer@framepages {14}{14}}}
\@writefile{nav}{\headcommand {\slideentry {2}{1}{4}{15/15}{Primeiro documento}{0}}}
\@writefile{nav}{\headcommand {\beamer@framepages {15}{15}}}
\@writefile{nav}{\headcommand {\slideentry {2}{1}{5}{16/16}{Primeiro documento}{0}}}
\@writefile{nav}{\headcommand {\beamer@framepages {16}{16}}}
\@writefile{nav}{\headcommand {\slideentry {2}{1}{6}{17/17}{Primeiro documento}{0}}}
\@writefile{nav}{\headcommand {\beamer@framepages {17}{17}}}
\@writefile{nav}{\headcommand {\slideentry {2}{1}{7}{18/18}{Primeiro documento}{0}}}
\@writefile{nav}{\headcommand {\beamer@framepages {18}{18}}}
\@writefile{nav}{\headcommand {\slideentry {2}{1}{8}{19/19}{Primeiro documento}{0}}}
\@writefile{nav}{\headcommand {\beamer@framepages {19}{19}}}
\@writefile{nav}{\headcommand {\slideentry {2}{1}{9}{20/20}{Primeiro documento}{0}}}
\@writefile{nav}{\headcommand {\beamer@framepages {20}{20}}}
\@writefile{nav}{\headcommand {\slideentry {2}{1}{10}{21/21}{Primeiro documento}{0}}}
\@writefile{nav}{\headcommand {\beamer@framepages {21}{21}}}
\@writefile{nav}{\headcommand {\slideentry {2}{1}{11}{22/22}{Primeiro documento}{0}}}
\@writefile{nav}{\headcommand {\beamer@framepages {22}{22}}}
\@writefile{nav}{\headcommand {\slideentry {2}{1}{12}{23/23}{Primeiro documento}{0}}}
\@writefile{nav}{\headcommand {\beamer@framepages {23}{23}}}
\@writefile{nav}{\headcommand {\slideentry {2}{1}{13}{24/24}{Primeiro documento}{0}}}
\@writefile{nav}{\headcommand {\beamer@framepages {24}{24}}}
\@writefile{nav}{\headcommand {\slideentry {2}{1}{14}{25/25}{Primeiro documento}{0}}}
\@writefile{nav}{\headcommand {\beamer@framepages {25}{25}}}
\@writefile{nav}{\headcommand {\slideentry {2}{1}{15}{26/26}{Primeiro documento}{0}}}
\@writefile{nav}{\headcommand {\beamer@framepages {26}{26}}}
\@writefile{nav}{\headcommand {\slideentry {2}{1}{16}{27/27}{Primeiro documento}{0}}}
\@writefile{nav}{\headcommand {\beamer@framepages {27}{27}}}
\@writefile{nav}{\headcommand {\slideentry {2}{1}{17}{28/28}{Primeiro documento}{0}}}
\@writefile{nav}{\headcommand {\beamer@framepages {28}{28}}}
\@writefile{nav}{\headcommand {\slideentry {2}{1}{18}{29/29}{Primeiro documento}{0}}}
\@writefile{nav}{\headcommand {\beamer@framepages {29}{29}}}
\@writefile{nav}{\headcommand {\slideentry {2}{1}{19}{30/30}{Primeiro documento}{0}}}
\@writefile{nav}{\headcommand {\beamer@framepages {30}{30}}}
\@writefile{nav}{\headcommand {\slideentry {2}{1}{20}{31/31}{Primeiro documento}{0}}}
\@writefile{nav}{\headcommand {\beamer@framepages {31}{31}}}
\@writefile{nav}{\headcommand {\slideentry {2}{1}{21}{32/32}{Primeiro documento}{0}}}
\@writefile{nav}{\headcommand {\beamer@framepages {32}{32}}}
\@writefile{nav}{\headcommand {\slideentry {2}{1}{22}{33/33}{Primeiro documento}{0}}}
\@writefile{nav}{\headcommand {\beamer@framepages {33}{33}}}
\@writefile{toc}{\beamer@sectionintoc {3}{Expandindo o \textlatin  {\LaTeX  }}{34}{0}{3}}
\@writefile{nav}{\headcommand {\sectionentry {3}{Expandindo o \textlatin  {\LaTeX  }}{34}{Expandindo o \textlatin  {\LaTeX  }}{0}}}
\@writefile{nav}{\headcommand {\beamer@sectionpages {11}{33}}}
\@writefile{nav}{\headcommand {\beamer@subsectionpages {12}{33}}}
\@writefile{nav}{\headcommand {\slideentry {3}{0}{23}{34/34}{}{0}}}
\@writefile{nav}{\headcommand {\beamer@framepages {34}{34}}}
\@writefile{toc}{\beamer@subsectionintoc {3}{1}{Projetos com v\IeC {\'a}rios arquivos}{35}{0}{3}}
\@writefile{nav}{\headcommand {\beamer@subsectionentry {0}{3}{1}{35}{Projetos com v\IeC {\'a}rios arquivos}}\headcommand {\beamer@subsectionpages {34}{34}}}
\@writefile{nav}{\headcommand {\slideentry {3}{1}{1}{35/35}{Projetos com v\IeC {\'a}rios arquivos}{0}}}
\@writefile{nav}{\headcommand {\beamer@framepages {35}{35}}}
\@writefile{nav}{\headcommand {\slideentry {3}{1}{2}{36/36}{Projetos com v\IeC {\'a}rios arquivos}{0}}}
\@writefile{nav}{\headcommand {\beamer@framepages {36}{36}}}
\@writefile{nav}{\headcommand {\slideentry {3}{1}{3}{37/37}{Projetos com v\IeC {\'a}rios arquivos}{0}}}
\@writefile{nav}{\headcommand {\beamer@framepages {37}{37}}}
\@writefile{nav}{\headcommand {\slideentry {3}{1}{4}{38/38}{Projetos com v\IeC {\'a}rios arquivos}{0}}}
\@writefile{nav}{\headcommand {\beamer@framepages {38}{38}}}
\@writefile{nav}{\headcommand {\slideentry {3}{1}{5}{39/39}{Projetos com v\IeC {\'a}rios arquivos}{0}}}
\@writefile{nav}{\headcommand {\beamer@framepages {39}{39}}}
\@writefile{nav}{\headcommand {\slideentry {3}{1}{6}{40/40}{Projetos com v\IeC {\'a}rios arquivos}{0}}}
\@writefile{nav}{\headcommand {\beamer@framepages {40}{40}}}
\@writefile{nav}{\headcommand {\slideentry {3}{1}{7}{41/41}{Projetos com v\IeC {\'a}rios arquivos}{0}}}
\@writefile{nav}{\headcommand {\beamer@framepages {41}{41}}}
\@writefile{toc}{\beamer@sectionintoc {4}{Bibliografia}{42}{0}{4}}
\@writefile{nav}{\headcommand {\sectionentry {4}{Bibliografia}{42}{Bibliografia}{0}}}
\@writefile{nav}{\headcommand {\beamer@sectionpages {34}{41}}}
\@writefile{nav}{\headcommand {\beamer@subsectionpages {35}{41}}}
\@writefile{nav}{\headcommand {\slideentry {4}{0}{8}{42/42}{}{0}}}
\@writefile{nav}{\headcommand {\beamer@framepages {42}{42}}}
\@writefile{toc}{\beamer@subsectionintoc {4}{1}{BibTEX}{43}{0}{4}}
\@writefile{nav}{\headcommand {\beamer@subsectionentry {0}{4}{1}{43}{BibTEX}}\headcommand {\beamer@subsectionpages {42}{42}}}
\@writefile{nav}{\headcommand {\slideentry {4}{1}{1}{43/43}{BibTEX}{0}}}
\@writefile{nav}{\headcommand {\beamer@framepages {43}{43}}}
\@writefile{nav}{\headcommand {\slideentry {4}{1}{2}{44/44}{BibTEX}{0}}}
\@writefile{nav}{\headcommand {\beamer@framepages {44}{44}}}
\@writefile{nav}{\headcommand {\slideentry {4}{1}{3}{45/45}{BibTEX}{0}}}
\@writefile{nav}{\headcommand {\beamer@framepages {45}{45}}}
\@writefile{nav}{\headcommand {\slideentry {4}{1}{4}{46/46}{BibTEX}{0}}}
\@writefile{nav}{\headcommand {\beamer@framepages {46}{46}}}
\@writefile{nav}{\headcommand {\slideentry {4}{1}{5}{47/47}{BibTEX}{0}}}
\@writefile{nav}{\headcommand {\beamer@framepages {47}{47}}}
\@writefile{toc}{\beamer@sectionintoc {5}{\textlatin  {\LaTeX  }$ \ $ na Internet}{48}{0}{5}}
\@writefile{nav}{\headcommand {\sectionentry {5}{\textlatin  {\LaTeX  }$ \ $ na Internet}{48}{\textlatin  {\LaTeX  }$ \ $ na Internet}{0}}}
\@writefile{nav}{\headcommand {\beamer@sectionpages {42}{47}}}
\@writefile{nav}{\headcommand {\beamer@subsectionpages {43}{47}}}
\@writefile{nav}{\headcommand {\slideentry {5}{0}{6}{48/48}{}{0}}}
\@writefile{nav}{\headcommand {\beamer@framepages {48}{48}}}
\@writefile{toc}{\beamer@subsectionintoc {5}{1}{Editores Online}{49}{0}{5}}
\@writefile{nav}{\headcommand {\beamer@subsectionentry {0}{5}{1}{49}{Editores Online}}\headcommand {\beamer@subsectionpages {48}{48}}}
\@writefile{nav}{\headcommand {\slideentry {5}{1}{1}{49/49}{Editores Online}{0}}}
\@writefile{nav}{\headcommand {\beamer@framepages {49}{49}}}
\@writefile{nav}{\headcommand {\slideentry {5}{1}{2}{50/50}{Editores Online}{0}}}
\@writefile{nav}{\headcommand {\beamer@framepages {50}{50}}}
\@writefile{nav}{\headcommand {\slideentry {5}{1}{3}{51/51}{Editores Online}{0}}}
\@writefile{nav}{\headcommand {\beamer@framepages {51}{51}}}
\@writefile{nav}{\headcommand {\slideentry {5}{1}{4}{52/52}{Editores Online}{0}}}
\@writefile{nav}{\headcommand {\beamer@framepages {52}{52}}}
\@writefile{nav}{\headcommand {\slideentry {5}{1}{5}{53/53}{Editores Online}{0}}}
\@writefile{nav}{\headcommand {\beamer@framepages {53}{53}}}
\@writefile{nav}{\headcommand {\slideentry {5}{1}{6}{54/54}{Editores Online}{0}}}
\@writefile{nav}{\headcommand {\beamer@framepages {54}{54}}}
\@writefile{nav}{\headcommand {\slideentry {5}{1}{7}{55/55}{Editores Online}{0}}}
\@writefile{nav}{\headcommand {\beamer@framepages {55}{55}}}
\@writefile{nav}{\headcommand {\slideentry {5}{1}{8}{56/56}{Editores Online}{0}}}
\@writefile{nav}{\headcommand {\beamer@framepages {56}{56}}}
\@writefile{nav}{\headcommand {\beamer@partpages {1}{56}}}
\@writefile{nav}{\headcommand {\beamer@subsectionpages {49}{56}}}
\@writefile{nav}{\headcommand {\beamer@sectionpages {48}{56}}}
\@writefile{nav}{\headcommand {\beamer@documentpages {56}}}
\@writefile{nav}{\headcommand {\def \inserttotalframenumber {56}}}
