\beamer@endinputifotherversion {3.24pt}
\headcommand {\slideentry {0}{0}{1}{1/1}{}{0}}
\headcommand {\beamer@framepages {1}{1}}
\headcommand {\slideentry {0}{0}{2}{2/2}{}{0}}
\headcommand {\beamer@framepages {2}{2}}
\headcommand {\sectionentry {1}{Introdu\IeC {\c c}\IeC {\~a}o}{3}{Introdu\IeC {\c c}\IeC {\~a}o}{0}}
\headcommand {\beamer@sectionpages {1}{2}}
\headcommand {\beamer@subsectionpages {1}{2}}
\headcommand {\slideentry {1}{0}{3}{3/3}{}{0}}
\headcommand {\beamer@framepages {3}{3}}
\headcommand {\beamer@subsectionentry {0}{1}{1}{4}{Iniciando}}\headcommand {\beamer@subsectionpages {3}{3}}
\headcommand {\slideentry {1}{1}{1}{4/4}{Iniciando}{0}}
\headcommand {\beamer@framepages {4}{4}}
\headcommand {\slideentry {1}{1}{2}{5/5}{Iniciando}{0}}
\headcommand {\beamer@framepages {5}{5}}
\headcommand {\slideentry {1}{1}{3}{6/6}{Iniciando}{0}}
\headcommand {\beamer@framepages {6}{6}}
\headcommand {\slideentry {1}{1}{4}{7/7}{Iniciando}{0}}
\headcommand {\beamer@framepages {7}{7}}
\headcommand {\slideentry {1}{1}{5}{8/8}{Iniciando}{0}}
\headcommand {\beamer@framepages {8}{8}}
\headcommand {\slideentry {1}{1}{6}{9/9}{Iniciando}{0}}
\headcommand {\beamer@framepages {9}{9}}
\headcommand {\slideentry {1}{1}{7}{10/10}{Iniciando}{0}}
\headcommand {\beamer@framepages {10}{10}}
\headcommand {\sectionentry {2}{Comandos iniciais}{11}{Comandos iniciais}{0}}
\headcommand {\beamer@sectionpages {3}{10}}
\headcommand {\beamer@subsectionpages {4}{10}}
\headcommand {\slideentry {2}{0}{8}{11/11}{}{0}}
\headcommand {\beamer@framepages {11}{11}}
\headcommand {\beamer@subsectionentry {0}{2}{1}{12}{Primeiro documento}}\headcommand {\beamer@subsectionpages {11}{11}}
\headcommand {\slideentry {2}{1}{1}{12/12}{Primeiro documento}{0}}
\headcommand {\beamer@framepages {12}{12}}
\headcommand {\slideentry {2}{1}{2}{13/13}{Primeiro documento}{0}}
\headcommand {\beamer@framepages {13}{13}}
\headcommand {\slideentry {2}{1}{3}{14/14}{Primeiro documento}{0}}
\headcommand {\beamer@framepages {14}{14}}
\headcommand {\slideentry {2}{1}{4}{15/15}{Primeiro documento}{0}}
\headcommand {\beamer@framepages {15}{15}}
\headcommand {\slideentry {2}{1}{5}{16/16}{Primeiro documento}{0}}
\headcommand {\beamer@framepages {16}{16}}
\headcommand {\slideentry {2}{1}{6}{17/17}{Primeiro documento}{0}}
\headcommand {\beamer@framepages {17}{17}}
\headcommand {\slideentry {2}{1}{7}{18/18}{Primeiro documento}{0}}
\headcommand {\beamer@framepages {18}{18}}
\headcommand {\slideentry {2}{1}{8}{19/19}{Primeiro documento}{0}}
\headcommand {\beamer@framepages {19}{19}}
\headcommand {\slideentry {2}{1}{9}{20/20}{Primeiro documento}{0}}
\headcommand {\beamer@framepages {20}{20}}
\headcommand {\slideentry {2}{1}{10}{21/21}{Primeiro documento}{0}}
\headcommand {\beamer@framepages {21}{21}}
\headcommand {\slideentry {2}{1}{11}{22/22}{Primeiro documento}{0}}
\headcommand {\beamer@framepages {22}{22}}
\headcommand {\slideentry {2}{1}{12}{23/23}{Primeiro documento}{0}}
\headcommand {\beamer@framepages {23}{23}}
\headcommand {\slideentry {2}{1}{13}{24/24}{Primeiro documento}{0}}
\headcommand {\beamer@framepages {24}{24}}
\headcommand {\slideentry {2}{1}{14}{25/25}{Primeiro documento}{0}}
\headcommand {\beamer@framepages {25}{25}}
\headcommand {\slideentry {2}{1}{15}{26/26}{Primeiro documento}{0}}
\headcommand {\beamer@framepages {26}{26}}
\headcommand {\slideentry {2}{1}{16}{27/27}{Primeiro documento}{0}}
\headcommand {\beamer@framepages {27}{27}}
\headcommand {\slideentry {2}{1}{17}{28/28}{Primeiro documento}{0}}
\headcommand {\beamer@framepages {28}{28}}
\headcommand {\slideentry {2}{1}{18}{29/29}{Primeiro documento}{0}}
\headcommand {\beamer@framepages {29}{29}}
\headcommand {\slideentry {2}{1}{19}{30/30}{Primeiro documento}{0}}
\headcommand {\beamer@framepages {30}{30}}
\headcommand {\slideentry {2}{1}{20}{31/31}{Primeiro documento}{0}}
\headcommand {\beamer@framepages {31}{31}}
\headcommand {\slideentry {2}{1}{21}{32/32}{Primeiro documento}{0}}
\headcommand {\beamer@framepages {32}{32}}
\headcommand {\slideentry {2}{1}{22}{33/33}{Primeiro documento}{0}}
\headcommand {\beamer@framepages {33}{33}}
\headcommand {\sectionentry {3}{Expandindo o \textlatin {\LaTeX }}{34}{Expandindo o \textlatin {\LaTeX }}{0}}
\headcommand {\beamer@sectionpages {11}{33}}
\headcommand {\beamer@subsectionpages {12}{33}}
\headcommand {\slideentry {3}{0}{23}{34/34}{}{0}}
\headcommand {\beamer@framepages {34}{34}}
\headcommand {\beamer@subsectionentry {0}{3}{1}{35}{Projetos com v\IeC {\'a}rios arquivos}}\headcommand {\beamer@subsectionpages {34}{34}}
\headcommand {\slideentry {3}{1}{1}{35/35}{Projetos com v\IeC {\'a}rios arquivos}{0}}
\headcommand {\beamer@framepages {35}{35}}
\headcommand {\slideentry {3}{1}{2}{36/36}{Projetos com v\IeC {\'a}rios arquivos}{0}}
\headcommand {\beamer@framepages {36}{36}}
\headcommand {\slideentry {3}{1}{3}{37/37}{Projetos com v\IeC {\'a}rios arquivos}{0}}
\headcommand {\beamer@framepages {37}{37}}
\headcommand {\slideentry {3}{1}{4}{38/38}{Projetos com v\IeC {\'a}rios arquivos}{0}}
\headcommand {\beamer@framepages {38}{38}}
\headcommand {\slideentry {3}{1}{5}{39/39}{Projetos com v\IeC {\'a}rios arquivos}{0}}
\headcommand {\beamer@framepages {39}{39}}
\headcommand {\slideentry {3}{1}{6}{40/40}{Projetos com v\IeC {\'a}rios arquivos}{0}}
\headcommand {\beamer@framepages {40}{40}}
\headcommand {\slideentry {3}{1}{7}{41/41}{Projetos com v\IeC {\'a}rios arquivos}{0}}
\headcommand {\beamer@framepages {41}{41}}
\headcommand {\sectionentry {4}{Bibliografia}{42}{Bibliografia}{0}}
\headcommand {\beamer@sectionpages {34}{41}}
\headcommand {\beamer@subsectionpages {35}{41}}
\headcommand {\slideentry {4}{0}{8}{42/42}{}{0}}
\headcommand {\beamer@framepages {42}{42}}
\headcommand {\beamer@subsectionentry {0}{4}{1}{43}{BibTEX}}\headcommand {\beamer@subsectionpages {42}{42}}
\headcommand {\slideentry {4}{1}{1}{43/43}{BibTEX}{0}}
\headcommand {\beamer@framepages {43}{43}}
\headcommand {\slideentry {4}{1}{2}{44/44}{BibTEX}{0}}
\headcommand {\beamer@framepages {44}{44}}
\headcommand {\slideentry {4}{1}{3}{45/45}{BibTEX}{0}}
\headcommand {\beamer@framepages {45}{45}}
\headcommand {\slideentry {4}{1}{4}{46/46}{BibTEX}{0}}
\headcommand {\beamer@framepages {46}{46}}
\headcommand {\slideentry {4}{1}{5}{47/47}{BibTEX}{0}}
\headcommand {\beamer@framepages {47}{47}}
\headcommand {\sectionentry {5}{\textlatin {\LaTeX }$ \ $ na Internet}{48}{\textlatin {\LaTeX }$ \ $ na Internet}{0}}
\headcommand {\beamer@sectionpages {42}{47}}
\headcommand {\beamer@subsectionpages {43}{47}}
\headcommand {\slideentry {5}{0}{6}{48/48}{}{0}}
\headcommand {\beamer@framepages {48}{48}}
\headcommand {\beamer@subsectionentry {0}{5}{1}{49}{Editores Online}}\headcommand {\beamer@subsectionpages {48}{48}}
\headcommand {\slideentry {5}{1}{1}{49/49}{Editores Online}{0}}
\headcommand {\beamer@framepages {49}{49}}
\headcommand {\slideentry {5}{1}{2}{50/50}{Editores Online}{0}}
\headcommand {\beamer@framepages {50}{50}}
\headcommand {\slideentry {5}{1}{3}{51/51}{Editores Online}{0}}
\headcommand {\beamer@framepages {51}{51}}
\headcommand {\slideentry {5}{1}{4}{52/52}{Editores Online}{0}}
\headcommand {\beamer@framepages {52}{52}}
\headcommand {\slideentry {5}{1}{5}{53/53}{Editores Online}{0}}
\headcommand {\beamer@framepages {53}{53}}
\headcommand {\slideentry {5}{1}{6}{54/54}{Editores Online}{0}}
\headcommand {\beamer@framepages {54}{54}}
\headcommand {\slideentry {5}{1}{7}{55/55}{Editores Online}{0}}
\headcommand {\beamer@framepages {55}{55}}
\headcommand {\slideentry {5}{1}{8}{56/56}{Editores Online}{0}}
\headcommand {\beamer@framepages {56}{56}}
\headcommand {\beamer@partpages {1}{56}}
\headcommand {\beamer@subsectionpages {49}{56}}
\headcommand {\beamer@sectionpages {48}{56}}
\headcommand {\beamer@documentpages {56}}
\headcommand {\def \inserttotalframenumber {56}}
