\relax 
\catcode `"\active 
\select@language{portuguese}
\@writefile{toc}{\select@language{portuguese}}
\@writefile{lof}{\select@language{portuguese}}
\@writefile{lot}{\select@language{portuguese}}
\@writefile{toc}{\contentsline {section}{\numberline {1}Introdu\IeC {\c c}\IeC {\~a}o}{1}}
\@writefile{toc}{\contentsline {subsection}{\numberline {1.1}Contexto hist\IeC {\'o}rico}{1}}
\@writefile{toc}{\contentsline {subsection}{\numberline {1.2}Proposta investigativa}{1}}
\@writefile{toc}{\contentsline {section}{\numberline {2}Argumenta\IeC {\c c}\IeC {\~a}o}{1}}
\@writefile{toc}{\contentsline {section}{\numberline {3}Conclus\IeC {\~a}o}{1}}
\@writefile{toc}{\contentsline {section}{\numberline {A}Prova incontest\IeC {\'a}vel 1}{2}}
\@writefile{toc}{\contentsline {section}{\numberline {B}Prova incontest\IeC {\'a}vel 2}{2}}
