\relax 
\catcode `"\active 
\select@language{portuguese}
\@writefile{toc}{\select@language{portuguese}}
\@writefile{lof}{\select@language{portuguese}}
\@writefile{lot}{\select@language{portuguese}}
\@writefile{toc}{\contentsline {section}{\numberline {1}Figuras}{1}}
\@writefile{lof}{\contentsline {figure}{\numberline {1}{\ignorespaces Para a pr\IeC {\'a}tica - 06}}{1}}
\@writefile{lof}{\contentsline {figure}{\numberline {2}{\ignorespaces Donald Knuth, o criador do T\kern -.1667em\lower .5ex\hbox {E}\kern -.125emX\spacefactor \@m {}.}}{2}}
\newlabel{fig:Knuth}{{2}{2}}
\@writefile{lof}{\contentsline {figure}{\numberline {3}{\ignorespaces Leslie Lamport, o criador do \LaTeX  .}}{2}}
\newlabel{fig:Lamport}{{3}{2}}
