This is BibTeX, Version 0.99d (TeX Live 2013/Debian)
Capacity: max_strings=35307, hash_size=35307, hash_prime=30011
The top-level auxiliary file: bibtex.aux
The style file: abbrv.bst
Database file #1: bibliografia.bib
You've used 2 entries,
            2118 wiz_defined-function locations,
            511 strings with 3956 characters,
and the built_in function-call counts, 545 in all, are:
= -- 52
> -- 14
< -- 1
+ -- 7
- -- 4
* -- 35
:= -- 97
add.period$ -- 6
call.type$ -- 2
change.case$ -- 7
chr.to.int$ -- 0
cite$ -- 2
duplicate$ -- 23
empty$ -- 50
format.name$ -- 4
if$ -- 110
int.to.chr$ -- 0
int.to.str$ -- 2
missing$ -- 3
newline$ -- 13
num.names$ -- 4
pop$ -- 9
preamble$ -- 1
purify$ -- 6
quote$ -- 0
skip$ -- 14
stack$ -- 0
substring$ -- 36
swap$ -- 3
text.length$ -- 1
text.prefix$ -- 0
top$ -- 0
type$ -- 6
warning$ -- 0
while$ -- 6
width$ -- 3
write$ -- 24
