\relax 
\catcode `"\active 
\citation{knuth1997art}
\citation{lamport1978time}
\bibstyle{abbrv}
\bibdata{bibliografia}
\bibcite{knuth1997art}{1}
\bibcite{lamport1978time}{2}
\select@language{portuguese}
\@writefile{toc}{\select@language{portuguese}}
\@writefile{lof}{\select@language{portuguese}}
\@writefile{lot}{\select@language{portuguese}}
\@writefile{toc}{\contentsline {section}{\numberline {1}Exemplo de Cita\IeC {\c c}\IeC {\~o}es}{1}}
