\begin{thebibliography}{1}

\bibitem{knuth1997art}
D.~E. Knuth.
\newblock {\em The art of computer programming: sorting and searching},
  volume~3.
\newblock Pearson Education, 1997.

\bibitem{lamport1978time}
L.~Lamport.
\newblock Time, clocks, and the ordering of events in a distributed system.
\newblock {\em Communications of the ACM}, 21(7):558--565, 1978.

\end{thebibliography}
