\relax 
\catcode `"\active 
\select@language{portuguese}
\@writefile{toc}{\select@language{portuguese}}
\@writefile{lof}{\select@language{portuguese}}
\@writefile{lot}{\select@language{portuguese}}
\@writefile{toc}{\contentsline {section}{\numberline {1}F\IeC {\'o}rmulas Matem\IeC {\'a}ticas}{1}}
\@writefile{toc}{\contentsline {subsection}{\numberline {1.1}Somat\IeC {\'o}rio}{1}}
\@writefile{toc}{\contentsline {subsection}{\numberline {1.2}Fra\IeC {\c c}\IeC {\~o}es}{1}}
\@writefile{toc}{\contentsline {subsection}{\numberline {1.3}Raizes}{1}}
\@writefile{toc}{\contentsline {subsection}{\numberline {1.4}Integral}{1}}
\@writefile{toc}{\contentsline {subsection}{\numberline {1.5}Limite}{1}}
