\select@language {portuguese}
\contentsline {section}{\numberline {1}Introdu\IeC {\c c}\IeC {\~a}o}{1}
\contentsline {subsection}{\numberline {1.1}Contexto hist\IeC {\'o}rico}{1}
\contentsline {subsection}{\numberline {1.2}Proposta investigativa}{1}
\contentsline {section}{\numberline {2}Argumenta\IeC {\c c}\IeC {\~a}o}{2}
\contentsline {section}{\numberline {3}Conclus\IeC {\~a}o}{2}
\contentsline {section}{\numberline {A}Prova incontest\IeC {\'a}vel 1}{2}
\contentsline {section}{\numberline {B}Prova incontest\IeC {\'a}vel 2}{2}
