\relax 
\catcode `"\active 
\select@language{portuguese}
\@writefile{toc}{\select@language{portuguese}}
\@writefile{lof}{\select@language{portuguese}}
\@writefile{lot}{\select@language{portuguese}}
\@writefile{toc}{\contentsline {section}{\numberline {1}Tabelas}{1}}
\@writefile{lot}{\contentsline {table}{\numberline {1}{\ignorespaces D\IeC {\'\i }gitos de um Telefone}}{1}}
\newlabel{tab:matriz}{{1}{1}}
\@writefile{lot}{\contentsline {table}{\numberline {2}{\ignorespaces Ranking de pa\IeC {\'\i }ses para o IDH Global}}{1}}
